{
    "/js/new-feed.js": "/js/new-feed.js?id=935f8da36873f70bcfb6",
    "/js/edit-feed.js": "/js/edit-feed.js?id=3c63eb1a80b49f162140",
    "/js/feed.js": "/js/feed.js?id=95581b805ac6c0ae51de",
    "/js/app.js": "/js/app.js?id=a01c1a5a46badf7dc031",
    "/css/app.css": "/css/app.css?id=ed1951e8bb45b7db2cbd",
    "/js/dashboard.js": "/js/dashboard.js?id=b2957e0c0d9b0d8ccb77"
}
